{
  "name": "3d_rotation",
  "do": "",
  "dont": "",
  "tags": [
    "symbol",
    "3D",
    "arrow",
    "rotation",
    "arrows",
    "alphabet",
    "type",
    "3d",
    "number",
    "character",
    "av",
    "letter",
    "text",
    "camera",
    "vr",
    "digit",
    "font"
  ],
  "category": ["action"],
  "type": "static",
  "hasOutlined": true,
  "date": "30/11/2020"
}
