{
  "name": "4k",
  "do": "",
  "dont": "",
  "tags": [
    "4000",
    "4K",
    "alphabet",
    "character",
    "digit",
    "display",
    "font",
    "letter",
    "number",
    "pixel",
    "pixels",
    "resolution",
    "symbol",
    "text",
    "type",
    "video"
  ],
  "category": ["av"],
  "type": "static",
  "hasOutlined": true,
  "date": "30/11/2020"
}
