{
  "name": "access_time_filled",
  "do": "",
  "dont": "",
  "tags": [
    "access",
    "notification",
    "alert",
    "alarm",
    "countdown",
    "clock",
    "time",
    "bell"
  ],
  "category": ["device"],
  "type": "static",
  "label": "None",
  "date": "03/03/2021",
  "hasOutlined": true
}
