{
  "name": "account_balance",
  "do": "",
  "dont": "",
  "tags": [
    "bill",
    "pay",
    "dollars",
    "commerce",
    "bank",
    "balance",
    "money",
    "online",
    "currency",
    "payment",
    "credit",
    "cash",
    "account",
    "card",
    "coin"
  ],
  "category": ["action"],
  "type": "static",
  "hasOutlined": true,
  "date": "30/11/2020"
}
