{
  "name": "ad_units",
  "do": "",
  "dont": "",
  "tags": [
    "Android",
    "OS",
    "ad",
    "banner",
    "cell",
    "device",
    "hardware",
    "iOS",
    "mobile",
    "notification",
    "notifications",
    "phone",
    "tablet",
    "top",
    "units"
  ],
  "category": ["device"],
  "type": "static",
  "hasOutlined": true,
  "date": "30/11/2020"
}
