{
  "name": "add_circle",
  "do": "",
  "dont": "",
  "tags": ["add", "new", "create", "box", "+", "circle", "plus"],
  "category": ["content"],
  "type": "static",
  "hasOutlined": true,
  "date": "30/11/2020"
}
