{
  "name": "adjust",
  "do": "",
  "dont": "",
  "tags": [
    "accommodate",
    "accustom",
    "adapt",
    "alter",
    "conform",
    "fine-tune",
    "fix",
    "modify"
  ],
  "category": ["image"],
  "type": "static",
  "hasOutlined": true,
  "date": "30/11/2020"
}
