{
  "name": "air",
  "do": "",
  "dont": "",
  "tags": ["air", "blowing", "breeze", "flow", "wave", "weather", "wind"],
  "category": ["device"],
  "type": "static",
  "label": "None",
  "date": "03/03/2021",
  "hasOutlined": true
}
