{
  "name": "alarm",
  "do": "",
  "dont": "",
  "tags": [
    "alart",
    "notification",
    "alarm",
    "countdown",
    "clock",
    "time",
    "bell"
  ],
  "category": ["action"],
  "type": "static",
  "hasOutlined": true,
  "date": "30/11/2020"
}
