{
  "name": "align_horizontal_center",
  "do": "",
  "dont": "",
  "tags": ["line up", "position", "place"],
  "category": ["editor"],
  "type": "static",
  "hasOutlined": true,
  "date": "30/11/2020"
}
