{
  "name": "arrow_upward",
  "do": "",
  "dont": "",
  "tags": ["direction", "up", "above", "greater"],
  "category": ["navigation"],
  "type": "static",
  "hasOutlined": true,
  "date": "30/11/2020"
}
