{
  "name": "attribution",
  "do": "",
  "dont": "",
  "tags": [
    "attribute",
    "attribution",
    "body",
    "copyright",
    "copywriter",
    "human",
    "people",
    "person"
  ],
  "category": ["content"],
  "type": "static",
  "label": "None",
  "date": "03/03/2021",
  "hasOutlined": true
}
