{
  "name": "auto_fix_high",
  "do": "",
  "dont": "",
  "tags": [
    "auto",
    "edit",
    "erase",
    "fix",
    "high",
    "magic",
    "modify",
    "star",
    "stars",
    "wand"
  ],
  "category": ["image"],
  "type": "static",
  "label": "None",
  "date": "03/03/2021",
  "hasOutlined": true
}
