{
  "name": "backpack",
  "do": "",
  "dont": "",
  "tags": ["rucksack", "knapsack", "pack", "bag", "hike"],
  "category": ["places"],
  "type": "static",
  "hasOutlined": true,
  "date": "30/11/2020"
}
