{
  "name": "battery_saver",
  "do": "",
  "dont": "",
  "tags": ["Battery", "cell", "charge", "mobile", "plus", "power", "saver"],
  "category": ["device"],
  "type": "static",
  "label": "None",
  "date": "03/03/2021",
  "hasOutlined": true
}
