{
  "name": "battery_full",
  "do": "",
  "dont": "",
  "tags": ["charge", "Battery", "mobile", "power", "cell", "full"],
  "category": ["device"],
  "type": "static",
  "hasOutlined": true,
  "date": "30/11/2020"
}
