{
  "name": "bed",
  "do": "",
  "dont": "",
  "tags": [
    "bed",
    "bedroom",
    "double",
    "full",
    "furniture",
    "home",
    "hotel",
    "house",
    "king",
    "night",
    "pillows",
    "queen",
    "rest",
    "room",
    "size",
    "sleep"
  ],
  "category": ["search"],
  "type": "static",
  "label": "None",
  "date": "03/03/2021",
  "hasOutlined": true
}
