{
  "name": "bluetooth_disabled",
  "do": "",
  "dont": "",
  "tags": [
    "symbol",
    "bluetooth",
    "connection",
    "disabled",
    "paring",
    "slash",
    "device",
    "enabled",
    "off",
    "on"
  ],
  "category": ["device"],
  "type": "static",
  "hasOutlined": true,
  "date": "30/11/2020"
}
