{
  "name": "bungalow",
  "do": "",
  "dont": "",
  "tags": [
    "accommodation",
    "house",
    "villa",
    "place",
    "farmhouse",
    "lodge",
    "home",
    "building",
    "vacation"
  ],
  "category": ["places"],
  "type": "static",
  "label": "None",
  "date": "03/03/2021",
  "hasOutlined": true
}
