{
  "name": "camera_outdoor",
  "do": "",
  "dont": "",
  "tags": [
    "architecture",
    "building",
    "camera",
    "estate",
    "film",
    "filming",
    "home",
    "house",
    "image",
    "motion",
    "nest",
    "outdoor",
    "outside",
    "picture",
    "place",
    "real",
    "residence",
    "residential",
    "shelter",
    "video",
    "videography"
  ],
  "category": ["search"],
  "type": "static",
  "label": "None",
  "date": "03/03/2021",
  "hasOutlined": true
}
