{
  "name": "cancel_presentation",
  "do": "",
  "dont": "",
  "tags": [
    "Presentation",
    "cancel",
    "close",
    "device",
    "present",
    "screen",
    "share",
    "x"
  ],
  "category": ["communication"],
  "type": "static",
  "hasOutlined": true,
  "date": "30/11/2020"
}
