{
  "name": "chair_alt",
  "do": "",
  "dont": "",
  "tags": [
    "cahir",
    "furniture",
    "home",
    "house",
    "kitchen",
    "lounging",
    "seating",
    "table"
  ],
  "category": ["search"],
  "type": "static",
  "label": "None",
  "date": "03/03/2021",
  "hasOutlined": true
}
