{
  "name": "change_circle",
  "do": "",
  "dont": "",
  "tags": ["refresh", "reload", "new", "arrows"],
  "category": ["content"],
  "type": "static",
  "label": "None",
  "date": "03/03/2021",
  "hasOutlined": true
}
