{
  "name": "check_circle",
  "do": "",
  "dont": "",
  "tags": ["finished", "check", "circle", "complete", "done"],
  "category": ["action"],
  "type": "static",
  "hasOutlined": true,
  "date": "30/11/2020"
}
