{
  "name": "check_box",
  "do": "",
  "dont": "",
  "tags": [
    "selected",
    "marked",
    "confirmed",
    "chosen",
    "picked",
    "option",
    "checked"
  ],
  "category": ["toggle"],
  "type": "static",
  "hasOutlined": true,
  "date": "30/11/2020"
}
