{
  "name": "colorize",
  "do": "",
  "dont": "",
  "tags": [
    "photography",
    "photo",
    "image",
    "album",
    "palette",
    "pallet",
    "picker"
  ],
  "category": ["image"],
  "type": "static",
  "hasOutlined": true,
  "date": "30/11/2020"
}
