{
  "name": "dark_mode",
  "do": "",
  "dont": "",
  "tags": [
    "moon",
    "night",
    "forecast",
    "weather",
    "Brightness",
    "contrast",
    "light"
  ],
  "category": ["device"],
  "type": "static",
  "label": "None",
  "date": "03/03/2021",
  "hasOutlined": true
}
