{
  "name": "developer_mode",
  "do": "",
  "dont": "",
  "tags": [
    "development",
    "code",
    "OS",
    "mobile",
    "iOS",
    "engineer",
    "Android",
    "tablet",
    "phone",
    "bracket",
    "developer",
    "device",
    "hardware"
  ],
  "category": ["device"],
  "type": "static",
  "hasOutlined": true,
  "date": "30/11/2020"
}
