{
  "name": "device_unknown",
  "do": "",
  "dont": "",
  "tags": [
    "?",
    "Android",
    "OS",
    "cell",
    "device",
    "error",
    "hardware",
    "help",
    "iOS",
    "information",
    "mark",
    "mobile",
    "phone",
    "question",
    "support",
    "symbol",
    "tablet",
    "unknown",
    "unrecognized"
  ],
  "category": ["hardware"],
  "type": "static",
  "hasOutlined": true,
  "date": "30/11/2020"
}
