{
  "name": "edit_road",
  "do": "",
  "dont": "",
  "tags": ["edit", "location", "pen", "pencil", "road", "street", "change"],
  "category": ["maps"],
  "type": "static",
  "hasOutlined": true,
  "date": "30/11/2020"
}
