{
  "name": "edit_attributes",
  "do": "",
  "dont": "",
  "tags": ["attribution", "check", "edit", "change"],
  "category": ["maps"],
  "type": "static",
  "hasOutlined": true,
  "date": "30/11/2020"
}
