{
  "name": "emoji_flags",
  "do": "",
  "dont": "",
  "tags": [
    "country",
    "destination",
    "emoji",
    "flags",
    "landmark",
    "location",
    "mark",
    "milepost",
    "milestone",
    "nation",
    "place",
    "pole",
    "save",
    "social",
    "world"
  ],
  "category": ["social"],
  "type": "static",
  "hasOutlined": true,
  "date": "30/11/2020"
}
