{
  "name": "euro_symbol",
  "do": "",
  "dont": "",
  "tags": ["symbol", "euro", "money", "currency", "dollar"],
  "category": ["action"],
  "type": "static",
  "hasOutlined": true,
  "date": "30/11/2020"
}
