{
  "name": "favorite",
  "do": "",
  "dont": "",
  "tags": ["love", "remember", "shape", "like", "save", "favorite", "heart"],
  "category": ["action"],
  "type": "static",
  "hasOutlined": true,
  "date": "30/11/2020"
}
