{
  "name": "feed",
  "do": "",
  "dont": "",
  "tags": [
    "article",
    "feed",
    "headline",
    "information",
    "news",
    "newspaper",
    "paper",
    "public",
    "social",
    "timeline"
  ],
  "category": ["search"],
  "type": "static",
  "label": "None",
  "date": "03/03/2021",
  "hasOutlined": true
}
