{
  "name": "fiber_dvr",
  "do": "",
  "dont": "",
  "tags": [
    "digital",
    "dvr",
    "symbol",
    "electronics",
    "recorder",
    "tv",
    "Fiber",
    "alphabet",
    "video",
    "type",
    "network",
    "character",
    "letter",
    "text",
    "font"
  ],
  "category": ["av"],
  "type": "static",
  "hasOutlined": true,
  "date": "30/11/2020"
}
