{
  "name": "flash_on",
  "do": "",
  "dont": "",
  "tags": [
    "photography",
    "photo",
    "image",
    "style",
    "custom",
    "glare",
    "glow",
    "automatic",
    "cache"
  ],
  "category": ["image"],
  "type": "static",
  "hasOutlined": true,
  "date": "30/11/2020"
}
