{
  "name": "folder_special",
  "do": "",
  "dont": "",
  "tags": ["portfolio", "star", "exclusive", "primary", "main"],
  "category": ["file"],
  "type": "static",
  "hasOutlined": true,
  "date": "30/11/2020"
}
