{
  "name": "fullscreen_exit",
  "do": "",
  "dont": "",
  "tags": ["entire", "frame", "image", "big screen", "exit", "stop", "disable"],
  "category": ["navigation"],
  "type": "static",
  "hasOutlined": true,
  "date": "30/11/2020"
}
