{
  "name": "gps_fixed",
  "do": "",
  "dont": "",
  "tags": [
    "pointer",
    "maps",
    "pin",
    "stop",
    "destination",
    "location",
    "place",
    "tracking",
    "direction"
  ],
  "category": ["device"],
  "type": "static",
  "hasOutlined": true,
  "date": "30/11/2020"
}
