{
  "name": "headset_mic",
  "do": "",
  "dont": "",
  "tags": ["audio", "music", "sound", "conference", "listen", "input"],
  "category": ["hardware"],
  "type": "static",
  "hasOutlined": true,
  "date": "30/11/2020"
}
