{
  "name": "hourglass_bottom",
  "do": "",
  "dont": "",
  "tags": [
    "Hourglass",
    "bottom",
    "countdown",
    "half",
    "loading",
    "minute",
    "minutes",
    "time",
    "wait",
    "waiting"
  ],
  "category": ["communication"],
  "type": "static",
  "hasOutlined": true,
  "date": "30/11/2020"
}
