{
  "name": "image_search",
  "do": "",
  "dont": "",
  "tags": [
    "find",
    "glass",
    "image",
    "landscape",
    "magnifying",
    "mountain",
    "mountains",
    "photo",
    "photography",
    "picture",
    "search"
  ],
  "category": ["image"],
  "type": "static",
  "hasOutlined": true,
  "date": "30/11/2020"
}
