{
  "name": "image_not_supported",
  "do": "",
  "dont": "",
  "tags": ["no image", "unsupported", "invalid"],
  "category": ["image"],
  "type": "static",
  "hasOutlined": true,
  "date": "30/11/2020"
}
