{
  "name": "iron",
  "do": "",
  "dont": "",
  "tags": [
    "smoothing",
    "steam",
    "tailor",
    "electric",
    "presser",
    "board",
    "laundry",
    "clothing",
    "appliances",
    "gadget",
    "technology",
    "household",
    "housekeeping"
  ],
  "category": ["places"],
  "type": "static",
  "label": "None",
  "date": "03/03/2021",
  "hasOutlined": true
}
