{
  "name": "keyboard_alt",
  "do": "",
  "dont": "",
  "tags": [
    "computer",
    "device",
    "hardware",
    "input",
    "keyboard",
    "keypad",
    "letter",
    "office",
    "text",
    "type"
  ],
  "category": ["hardware"],
  "type": "static",
  "label": "None",
  "date": "03/03/2021",
  "hasOutlined": true
}
