{
  "name": "label_off",
  "do": "",
  "dont": "",
  "tags": [
    "disabled",
    "enabled",
    "indent",
    "label",
    "off",
    "on",
    "slash",
    "stamp",
    "sticker",
    "tag"
  ],
  "category": ["action"],
  "type": "static",
  "hasOutlined": true,
  "date": "30/11/2020"
}
