{
  "name": "laptop_chromebook",
  "do": "",
  "dont": "",
  "tags": [
    "notebook",
    "computer",
    "microcomputer",
    "portable",
    "android",
    "google"
  ],
  "category": ["hardware"],
  "type": "static",
  "hasOutlined": true,
  "date": "30/11/2020"
}
