{
  "name": "lens_blur",
  "do": "",
  "dont": "",
  "tags": [
    "blur",
    "camera",
    "dim",
    "dot",
    "effect",
    "foggy",
    "fuzzy",
    "image",
    "lens",
    "photo",
    "soften"
  ],
  "category": ["device"],
  "type": "static",
  "label": "None",
  "date": "03/03/2021",
  "hasOutlined": true
}
