{
  "name": "line_weight",
  "do": "",
  "dont": "",
  "tags": ["spacing", "thickness", "line", "weight", "style", "height"],
  "category": ["action"],
  "type": "static",
  "hasOutlined": true,
  "date": "30/11/2020"
}
