{
  "name": "local_printshop",
  "do": "",
  "dont": "",
  "tags": ["composer", "pressroom", "printer", "pressroom", "ink"],
  "category": ["maps"],
  "type": "static",
  "hasOutlined": true,
  "date": "30/11/2020"
}
