{
  "name": "local_play",
  "do": "",
  "dont": "",
  "tags": ["teather", "cinema", "movie", "film", "recital", "ticket"],
  "category": ["maps"],
  "type": "static",
  "hasOutlined": true,
  "date": "30/11/2020"
}
