{
  "name": "local_police",
  "do": "",
  "dont": "",
  "tags": ["911", "badge", "law", "officer", "police", "security"],
  "category": ["maps"],
  "type": "static",
  "hasOutlined": true,
  "date": "30/11/2020"
}
