{
  "name": "local_phone",
  "do": "",
  "dont": "",
  "tags": ["call", "phone", "communication", "telecommunication", "booth"],
  "category": ["maps"],
  "type": "static",
  "hasOutlined": true,
  "date": "30/11/2020"
}
