{
  "name": "local_hospital",
  "do": "",
  "dont": "",
  "tags": ["cross", "911", "emergency", "medicine", "hospital", "aid", "first"],
  "category": ["maps"],
  "type": "static",
  "hasOutlined": true,
  "date": "30/11/2020"
}
