{
  "name": "local_atm",
  "do": "",
  "dont": "",
  "tags": [
    "symbol",
    "bill",
    "pay",
    "dollars",
    "commerce",
    "cart",
    "money",
    "online",
    "currency",
    "payment",
    "atm",
    "credit",
    "cash",
    "card",
    "coin",
    "shopping"
  ],
  "category": ["maps"],
  "type": "static",
  "hasOutlined": true,
  "date": "30/11/2020"
}
