{
  "name": "loupe",
  "do": "",
  "dont": "",
  "tags": ["photography", "photo", "image", "glass", "magnifier", "magnify"],
  "category": ["image"],
  "type": "static",
  "hasOutlined": true,
  "date": "30/11/2020"
}
