{
  "name": "mic_external_off",
  "do": "",
  "dont": "",
  "tags": [
    "audio",
    "disabled",
    "enabled",
    "external",
    "mic",
    "microphone",
    "off",
    "on",
    "slash",
    "sound",
    "voice"
  ],
  "category": ["image"],
  "type": "static",
  "label": "None",
  "date": "03/03/2021",
  "hasOutlined": true
}
