{
  "name": "mobiledata_off",
  "do": "",
  "dont": "",
  "tags": [
    "arrow",
    "data",
    "disabled",
    "down",
    "enabled",
    "internet",
    "mobile",
    "network",
    "off",
    "on",
    "slash",
    "speed",
    "up",
    "wifi",
    "wireless"
  ],
  "category": ["device"],
  "type": "static",
  "label": "None",
  "date": "03/03/2021",
  "hasOutlined": true
}
