{
  "name": "mobile_screen_share",
  "do": "",
  "dont": "",
  "tags": [
    "Mobile",
    "arrow",
    "device",
    "mirror",
    "monitor",
    "phone",
    "screen",
    "share",
    "tv"
  ],
  "category": ["communication"],
  "type": "static",
  "hasOutlined": true,
  "date": "30/11/2020"
}
