{
  "name": "moped",
  "do": "",
  "dont": "",
  "tags": [
    "automobile",
    "car",
    "cars",
    "direction",
    "maps",
    "moped",
    "motorized",
    "public",
    "scooter",
    "transportation",
    "vehicle",
    "vespa"
  ],
  "category": ["maps"],
  "type": "static",
  "hasOutlined": true,
  "date": "30/11/2020"
}
