{
  "name": "no_encryption",
  "do": "",
  "dont": "",
  "tags": [
    "unsafe",
    "unlocked",
    "unsecured",
    "no security",
    "decrypt",
    "decipher"
  ],
  "category": ["notification"],
  "type": "static",
  "hasOutlined": true,
  "date": "30/11/2020"
}
