{
  "name": "note_add",
  "do": "",
  "dont": "",
  "tags": [
    "add",
    "new",
    "note",
    "file",
    "documentation",
    "doc",
    "comment",
    "plus"
  ],
  "category": ["action"],
  "type": "static",
  "hasOutlined": true,
  "date": "30/11/2020"
}
