{
  "name": "open_with",
  "do": "",
  "dont": "",
  "tags": ["expand", "move", "arrow", "arrows", "open", "direction"],
  "category": ["action"],
  "type": "static",
  "hasOutlined": true,
  "date": "30/11/2020"
}
