{
  "name": "open_in_new",
  "do": "",
  "dont": "",
  "tags": ["new", "arrow", "box", "window", "open"],
  "category": ["action"],
  "type": "static",
  "hasOutlined": true,
  "date": "30/11/2020"
}
