{
  "name": "open_in_new_off",
  "do": "",
  "dont": "",
  "tags": [
    "new",
    "arrow",
    "box",
    "window",
    "open",
    "browser",
    "link",
    "cancel"
  ],
  "category": ["action"],
  "type": "static",
  "label": "None",
  "date": "03/03/2021",
  "hasOutlined": true
}
