{
  "name": "pattern",
  "do": "",
  "dont": "",
  "tags": [
    "key",
    "login",
    "password",
    "pattern",
    "pin",
    "security",
    "star",
    "unlock"
  ],
  "category": ["device"],
  "type": "static",
  "label": "None",
  "date": "03/03/2021",
  "hasOutlined": true
}
