{
  "name": "perm_camera_mic",
  "do": "",
  "dont": "",
  "tags": ["mic", "speaker", "photo", "camera", "microphone"],
  "category": ["action"],
  "type": "static",
  "hasOutlined": true,
  "date": "30/11/2020"
}
