{
  "name": "perm_device_information",
  "do": "",
  "dont": "",
  "tags": [
    "OS",
    "mobile",
    "i",
    "iOS",
    "Android",
    "important",
    "tablet",
    "alert",
    "phone",
    "information",
    "device",
    "announcement",
    "hardware",
    "info"
  ],
  "category": ["action"],
  "type": "static",
  "hasOutlined": true,
  "date": "30/11/2020"
}
