{
  "name": "person_search",
  "do": "",
  "dont": "",
  "tags": [
    "account",
    "face",
    "human",
    "people",
    "person",
    "profile",
    "find",
    "search",
    "look for",
    "user"
  ],
  "category": ["communication"],
  "type": "static",
  "hasOutlined": true,
  "date": "30/11/2020"
}
