{
  "name": "phonelink_lock",
  "do": "",
  "dont": "",
  "tags": [
    "call",
    "tablet",
    "OS",
    "phone",
    "chat",
    "mobile",
    "lock",
    "text",
    "iOS",
    "device",
    "Android",
    "hardware"
  ],
  "category": ["communication"],
  "type": "static",
  "hasOutlined": true,
  "date": "30/11/2020"
}
