{
  "name": "photo_filter",
  "do": "",
  "dont": "",
  "tags": ["photography", "image", "edit", "custom"],
  "category": ["image"],
  "type": "static",
  "hasOutlined": true,
  "date": "30/11/2020"
}
