{
  "name": "piano_off",
  "do": "",
  "dont": "",
  "tags": [
    "grand",
    "instrument",
    "music",
    "play",
    "classic",
    "concert",
    "media",
    "melody",
    "audio",
    "note",
    "sound",
    "pianist",
    "unavailable",
    "inaccessible"
  ],
  "category": ["social"],
  "type": "static",
  "label": "None",
  "date": "03/03/2021",
  "hasOutlined": true
}
