{
  "name": "plumbing",
  "do": "",
  "dont": "",
  "tags": [
    "wrench",
    "tool",
    "plumber",
    "handy man",
    "tradesman",
    "worker",
    "steam fitter"
  ],
  "category": ["maps"],
  "type": "static",
  "hasOutlined": true,
  "date": "30/11/2020"
}
