{
  "name": "policy",
  "do": "",
  "dont": "",
  "tags": [
    "certified",
    "document",
    "glass",
    "legal",
    "magnifying",
    "policy",
    "protection",
    "search",
    "secure",
    "security",
    "shield"
  ],
  "category": ["content"],
  "type": "static",
  "hasOutlined": true,
  "date": "30/11/2020"
}
