{
  "name": "publish",
  "do": "",
  "dont": "",
  "tags": ["cloud", "file", "import", "arrow", "upload", "publish", "up"],
  "category": ["editor"],
  "type": "static",
  "hasOutlined": true,
  "date": "30/11/2020"
}
