{
  "name": "question_answer",
  "do": "",
  "dont": "",
  "tags": [
    "answer",
    "question",
    "bubble",
    "speech",
    "converse",
    "talk",
    "conversation"
  ],
  "category": ["action"],
  "type": "static",
  "hasOutlined": true,
  "date": "30/11/2020"
}
