{
  "name": "queue",
  "do": "",
  "dont": "",
  "tags": [
    "add",
    "music",
    "playlist",
    "stream",
    "collection",
    "video",
    "list",
    "Queue"
  ],
  "category": ["av"],
  "type": "static",
  "hasOutlined": true,
  "date": "30/11/2020"
}
