{
  "name": "quiz",
  "do": "",
  "dont": "",
  "tags": ["?", "faq", "help", "question", "quiz", "symbol", "test"],
  "category": ["device"],
  "type": "static",
  "label": "None",
  "date": "03/03/2021",
  "hasOutlined": true
}
