{
  "name": "radio_button_unchecked",
  "do": "",
  "dont": "",
  "tags": ["unconfirmed", "unselected", "unmarked", "clean", "option", "blank"],
  "category": ["toggle"],
  "type": "static",
  "hasOutlined": true,
  "date": "30/11/2020"
}
