{
  "name": "raw_off",
  "do": "",
  "dont": "",
  "tags": [
    "alphabet",
    "character",
    "disabled",
    "enabled",
    "font",
    "image",
    "letter",
    "off",
    "on",
    "original",
    "photo",
    "photography",
    "raw",
    "slash",
    "symbol",
    "text",
    "type"
  ],
  "category": ["image"],
  "type": "static",
  "label": "None",
  "date": "03/03/2021",
  "hasOutlined": true
}
