{
  "name": "recommend",
  "do": "",
  "dont": "",
  "tags": [
    "approved",
    "circle",
    "confirm",
    "favorite",
    "gesture",
    "hand",
    "like",
    "reaction",
    "recommend",
    "social",
    "support",
    "thumbs",
    "up",
    "well"
  ],
  "category": ["social"],
  "type": "static",
  "label": "None",
  "date": "03/03/2021",
  "hasOutlined": true
}
