{
  "name": "remove_circle",
  "do": "",
  "dont": "",
  "tags": [
    "can",
    "minus",
    "negative",
    "block",
    "circle",
    "delete",
    "remove",
    "substract",
    "trash"
  ],
  "category": ["content"],
  "type": "static",
  "hasOutlined": true,
  "date": "30/11/2020"
}
