{
  "name": "rsvp",
  "do": "",
  "dont": "",
  "tags": [
    "alphabet",
    "character",
    "font",
    "invitation",
    "invite",
    "letter",
    "plaît",
    "respond",
    "rsvp",
    "répondez",
    "sil",
    "symbol",
    "text",
    "type",
    "vous"
  ],
  "category": ["device"],
  "type": "static",
  "label": "None",
  "date": "03/03/2021",
  "hasOutlined": true
}
