{
  "name": "satellite",
  "do": "",
  "dont": "",
  "tags": ["images", "mountain", "maps", "location", "satellite"],
  "category": ["maps"],
  "type": "static",
  "hasOutlined": true,
  "date": "30/11/2020"
}
