{
  "name": "schema",
  "do": "",
  "dont": "",
  "tags": [
    "business",
    "data",
    "intelligence",
    "organization",
    "relational",
    "flow chart",
    "hierarchy",
    "inheritance",
    "network",
    "structure",
    "infographic"
  ],
  "category": ["editor"],
  "type": "static",
  "label": "None",
  "date": "03/03/2021",
  "hasOutlined": true
}
