{
  "name": "screen_lock_landscape",
  "do": "",
  "dont": "",
  "tags": [
    "rotate",
    "tablet",
    "OS",
    "phone",
    "mobile",
    "lock",
    "screen",
    "iOS",
    "device",
    "landscape",
    "Android",
    "hardware"
  ],
  "category": ["device"],
  "type": "static",
  "hasOutlined": true,
  "date": "30/11/2020"
}
