{
  "name": "screen_search_desktop",
  "do": "",
  "dont": "",
  "tags": [
    "Android",
    "OS",
    "arrow",
    "desktop",
    "device",
    "hardware",
    "iOS",
    "lock",
    "monitor",
    "rotate",
    "screen",
    "web"
  ],
  "category": ["device"],
  "type": "static",
  "label": "None",
  "date": "03/03/2021",
  "hasOutlined": true
}
