{
  "name": "sd_card_alert",
  "do": "",
  "dont": "",
  "tags": [
    "!",
    "alert",
    "attention",
    "camera",
    "card",
    "caution",
    "danger",
    "digital",
    "error",
    "exclamation",
    "important",
    "mark",
    "memory",
    "notification",
    "photos",
    "sd",
    "secure",
    "storage",
    "symbol",
    "warning"
  ],
  "category": ["notification"],
  "type": "static",
  "label": "None",
  "date": "03/03/2021",
  "hasOutlined": true
}
