{
  "name": "search_off",
  "do": "",
  "dont": "",
  "tags": [
    "disabled",
    "enabled",
    "filter",
    "look",
    "look up",
    "magnify",
    "magnifying glass",
    "off",
    "on",
    "search",
    "x"
  ],
  "category": ["action"],
  "type": "static",
  "hasOutlined": true,
  "date": "30/11/2020"
}
