{
  "name": "security_update_good",
  "do": "",
  "dont": "",
  "tags": [
    "Android",
    "OS",
    "checkmark",
    "device",
    "hardware",
    "iOS",
    "mobile",
    "ok",
    "phone",
    "security",
    "tablet",
    "tick",
    "update"
  ],
  "category": ["device"],
  "type": "static",
  "label": "None",
  "date": "03/03/2021",
  "hasOutlined": true
}
