{
  "name": "settings_remote",
  "do": "",
  "dont": "",
  "tags": ["settings", "wifi", "bluetooth", "remote"],
  "category": ["action"],
  "type": "static",
  "hasOutlined": true,
  "date": "30/11/2020"
}
