{
  "name": "settings_voice",
  "do": "",
  "dont": "",
  "tags": [
    "voice",
    "settings",
    "recorder",
    "mic",
    "record",
    "speaker",
    "microphone"
  ],
  "category": ["action"],
  "type": "static",
  "hasOutlined": true,
  "date": "30/11/2020"
}
