{
  "name": "short_text",
  "do": "",
  "dont": "",
  "tags": ["brief", "note", "document", "doc", "short", "comment", "text"],
  "category": ["editor"],
  "type": "static",
  "hasOutlined": true,
  "date": "30/11/2020"
}
