{
  "name": "single_bed",
  "do": "",
  "dont": "",
  "tags": [
    "bed",
    "bedroom",
    "double",
    "full",
    "furniture",
    "home",
    "hotel",
    "house",
    "king",
    "night",
    "pillows",
    "queen",
    "rest",
    "room",
    "size",
    "sleep"
  ],
  "category": ["social"],
  "type": "static",
  "hasOutlined": true,
  "date": "30/11/2020"
}
