{
  "name": "slideshow",
  "do": "",
  "dont": "",
  "tags": ["camera", "setting", "presentation", "slide", "play"],
  "category": ["image"],
  "type": "static",
  "hasOutlined": true,
  "date": "30/11/2020"
}
