{
  "name": "smart_toy",
  "do": "",
  "dont": "",
  "tags": ["robot", "smart", "toy"],
  "category": ["hardware"],
  "type": "static",
  "label": "None",
  "date": "03/03/2021",
  "hasOutlined": true
}
