{
  "name": "smart_button",
  "do": "",
  "dont": "",
  "tags": ["button", "key", "ui", "interface", "keyboard"],
  "category": ["action"],
  "type": "static",
  "hasOutlined": true,
  "date": "30/11/2020"
}
