{
  "name": "sort_by_alpha",
  "do": "",
  "dont": "",
  "tags": [
    "symbol",
    "alphabetize",
    "alphabet",
    "list",
    "type",
    "character",
    "organize",
    "letter",
    "Sort",
    "az",
    "text",
    "font",
    "order"
  ],
  "category": ["av"],
  "type": "static",
  "hasOutlined": true,
  "date": "30/11/2020"
}
