{
  "name": "sports_tennis",
  "do": "",
  "dont": "",
  "tags": [
    "athlete",
    "athletic",
    "ball",
    "bat",
    "entertainment",
    "exercise",
    "game",
    "hobby",
    "racket",
    "social",
    "sports",
    "tennis"
  ],
  "category": ["social"],
  "type": "static",
  "hasOutlined": true,
  "date": "30/11/2020"
}
