{
  "name": "stars",
  "do": "",
  "dont": "",
  "tags": ["love", "star", "like", "rate", "rating", "circle", "favorite"],
  "category": ["action"],
  "type": "static",
  "hasOutlined": true,
  "date": "30/11/2020"
}
