{
  "name": "store",
  "do": "",
  "dont": "",
  "tags": [
    "shop",
    "business",
    "buy",
    "bill",
    "pay",
    "dollars",
    "store",
    "commerce",
    "building",
    "cart",
    "money",
    "online",
    "currency",
    "payment",
    "credit",
    "cash",
    "storefront",
    "card",
    "coin",
    "shopping"
  ],
  "category": ["action"],
  "type": "static",
  "hasOutlined": true,
  "date": "30/11/2020"
}
