{
  "name": "storefront",
  "do": "",
  "dont": "",
  "tags": [
    "business",
    "buy",
    "cafe",
    "commerce",
    "front",
    "market",
    "place",
    "restaurant",
    "retail",
    "sell",
    "shop",
    "shopping",
    "store",
    "storefront"
  ],
  "category": ["places"],
  "type": "static",
  "hasOutlined": true,
  "date": "30/11/2020"
}
