{
  "name": "storm",
  "do": "",
  "dont": "",
  "tags": [
    "forecast",
    "hurricane",
    "storm",
    "temperature",
    "twister",
    "weather",
    "wind"
  ],
  "category": ["device"],
  "type": "static",
  "label": "None",
  "date": "03/03/2021",
  "hasOutlined": true
}
