{
  "name": "subject",
  "do": "",
  "dont": "",
  "tags": [
    "note",
    "justify",
    "subject",
    "document",
    "writing",
    "doc",
    "text",
    "alignment",
    "list",
    "email",
    "full"
  ],
  "category": ["action"],
  "type": "static",
  "hasOutlined": true,
  "date": "30/11/2020"
}
