{
  "name": "subscriptions",
  "do": "",
  "dont": "",
  "tags": [
    "subscriptions",
    "subscribe",
    "enroll",
    "Subscription",
    "signup",
    "order"
  ],
  "category": ["av"],
  "type": "static",
  "hasOutlined": true,
  "date": "30/11/2020"
}
