{
  "name": "superscript",
  "do": "",
  "dont": "",
  "tags": ["index", "type", "format", "math", "text", "figure", "symbol", "up"],
  "category": ["editor"],
  "type": "static",
  "hasOutlined": true,
  "date": "30/11/2020"
}
