{
  "name": "swap_horiz",
  "do": "",
  "dont": "",
  "tags": ["horizontal", "arrow", "arrows", "back", "direction"],
  "category": ["action"],
  "type": "static",
  "hasOutlined": true,
  "date": "30/11/2020"
}
