{
  "name": "switch_video",
  "do": "",
  "dont": "",
  "tags": ["camera", "setting", "movie", "media", "mode", "play"],
  "category": ["image"],
  "type": "static",
  "hasOutlined": true,
  "date": "30/11/2020"
}
