{
  "name": "sync_disabled",
  "do": "",
  "dont": "",
  "tags": ["refresh", "reload", "update", "off"],
  "category": ["notification"],
  "type": "static",
  "hasOutlined": true,
  "date": "30/11/2020"
}
