{
  "name": "sync_alt",
  "do": "",
  "dont": "",
  "tags": [
    "alt",
    "arrow",
    "arrows",
    "horizontal",
    "internet",
    "sync",
    "technology",
    "up",
    "update",
    "wifi"
  ],
  "category": ["action"],
  "type": "static",
  "hasOutlined": true,
  "date": "30/11/2020"
}
