{
  "name": "terrain",
  "do": "",
  "dont": "",
  "tags": ["mountain", "geography", "terrain", "landscape"],
  "category": ["maps"],
  "type": "static",
  "hasOutlined": true,
  "date": "30/11/2020"
}
