{
  "name": "textsms",
  "do": "",
  "dont": "",
  "tags": [
    "bubble",
    "dots",
    "speech",
    "chat",
    "sms",
    "Text",
    "talk",
    "message"
  ],
  "category": ["communication"],
  "type": "static",
  "hasOutlined": true,
  "date": "30/11/2020"
}
