{
  "name": "theaters",
  "do": "",
  "dont": "",
  "tags": [
    "movies",
    "movie",
    "theaters",
    "watch",
    "theater",
    "show",
    "showtimes",
    "film"
  ],
  "category": ["action"],
  "type": "static",
  "hasOutlined": true,
  "date": "30/11/2020"
}
