{
  "name": "thermostat_auto",
  "do": "",
  "dont": "",
  "tags": [
    "a",
    "auto",
    "celsius",
    "fahrenheit",
    "meter",
    "temp",
    "temperature",
    "thermometer",
    "thermostat"
  ],
  "category": ["image"],
  "type": "static",
  "label": "None",
  "date": "03/03/2021",
  "hasOutlined": true
}
