{
  "name": "time_to_leave",
  "do": "",
  "dont": "",
  "tags": ["timer", "alarm", "schedule", "exit"],
  "category": ["notification"],
  "type": "static",
  "hasOutlined": true,
  "date": "30/11/2020"
}
