{
  "name": "timer_10",
  "do": "",
  "dont": "",
  "tags": ["time", "timeout", "setting", "stopwatch", "photo", "camera"],
  "category": ["image"],
  "type": "static",
  "hasOutlined": true,
  "date": "30/11/2020"
}
