{
  "name": "travel_explore",
  "do": "",
  "dont": "",
  "tags": ["map", "search", "geography", "globe", "view", "earth"],
  "category": ["social"],
  "type": "static",
  "label": "None",
  "date": "03/03/2021",
  "hasOutlined": true
}
