{
  "name": "turned_in_not",
  "do": "",
  "dont": "",
  "tags": ["remember", "bookmark", "not", "outline", "turned", "in", "save"],
  "category": ["action"],
  "type": "static",
  "hasOutlined": true,
  "date": "30/11/2020"
}
