{
  "name": "unarchive",
  "do": "",
  "dont": "",
  "tags": ["undo", "mail", "arrow", "archive", "store", "up", "inbox"],
  "category": ["content"],
  "type": "static",
  "hasOutlined": true,
  "date": "30/11/2020"
}
