{
  "name": "update_disabled",
  "do": "",
  "dont": "",
  "tags": ["renew", "refresh", "unavailable", "off"],
  "category": ["action"],
  "type": "static",
  "hasOutlined": true,
  "date": "30/11/2020"
}
