{
  "name": "update",
  "do": "",
  "dont": "",
  "tags": [
    "rotate",
    "arrow",
    "back",
    "refresh",
    "update",
    "clock",
    "history",
    "time",
    "reverse",
    "backwards"
  ],
  "category": ["action"],
  "type": "static",
  "hasOutlined": true,
  "date": "30/11/2020"
}
