{
  "name": "verified",
  "do": "",
  "dont": "",
  "tags": [
    "audit",
    "badge",
    "certified",
    "check",
    "checkmark",
    "security",
    "user",
    "verified"
  ],
  "category": ["action"],
  "type": "static",
  "hasOutlined": true,
  "date": "30/11/2020"
}
