{
  "name": "vertical_distribute",
  "do": "",
  "dont": "",
  "tags": ["disperse", "partition", "allot", "scatter"],
  "category": ["editor"],
  "type": "static",
  "hasOutlined": true,
  "date": "30/11/2020"
}
