{
  "name": "videocam_off",
  "do": "",
  "dont": "",
  "tags": [
    "conference",
    "Video",
    "chat",
    "screen",
    "disabled",
    "slash",
    "camera",
    "enabled",
    "off",
    "on"
  ],
  "category": ["av"],
  "type": "static",
  "hasOutlined": true,
  "date": "30/11/2020"
}
