{
  "name": "volume_off",
  "do": "",
  "dont": "",
  "tags": [
    "tv",
    "music",
    "Volume",
    "sound",
    "control",
    "disabled",
    "slash",
    "audio",
    "enabled",
    "off",
    "on"
  ],
  "category": ["av"],
  "type": "static",
  "hasOutlined": true,
  "date": "30/11/2020"
}
