{
  "name": "vpn_key",
  "do": "",
  "dont": "",
  "tags": ["password", "code", "unlock", "Vpn", "lock", "key", "passcode"],
  "category": ["communication"],
  "type": "static",
  "hasOutlined": true,
  "date": "30/11/2020"
}
