{
  "name": "bootstrapping",
  "do": "<ul><li>When bootstraping a new element into a system.</li></ul>",
  "dont": "",
  "tags": ["eos", "minion", "boot", "startup", "booting"],
  "category": "action",
  "type": "static",
  "date": "30/11/2020"
}
