{
  "name": "product_classes",
  "do": "<ul><li>To represent product classes.</li></ul>",
  "dont": "",
  "tags": [
    "eos",
    "subscription",
    "SCC",
    "category",
    "collection",
    "classification",
    "group",
    "set"
  ],
  "category": "services",
  "type": "static",
  "date": "30/11/2020"
}
